{
  "consul": "{{.CONSUL_ADDRESS}}",
  "services": [
    {
      "name": "mongodb",
      "port": 27017,
      "interfaces": ["eth0"],
      "health": "/usr/local/bin/mongodb_health.sh",
      "poll": 1,
      "ttl": 5
    }
  ]
}